{
  "t": "zoroaster -a",
  "test": "yarn t test/spec test/mask",
  "doc": "NODE_DEBUG=doc doc -o README.md",
  "_splendid": "ALAMODE_ENV=debug-idio splendid-dev splendid",
  "Postinstall": {
    "splendid": "mv node_modules/@mauriceguest/splendid node_modules/splendid;mkdir -p node_modules/splendid/src/js;",
    "create-ws": "cp ws.js node_modules/splendid/src/js"
  },
  "start": "_splendid -s",
  "build": "_splendid",
  "dev": "_splendid -s -e dev",
  "prod": "node node_modules/splendid/build/bin/splendid -s",
  "s": "splendid -s",
  "d": "splendid -s -e dev"
}